…
The following object is masked from ‘package:purrr’:

    pluck

The following object is masked from ‘package:readr’:

    guess_encoding

[1] "Scraping these dates:"
[1] "2020-02-29"
[1] "Success rate: 100%"
[1] "finished TR nfl"
Updating Weather History...
[1] "Scraping these dates:"
# A tibble: 204 x 2
   date       zip  
   <chr>      <chr>
 1 2019-10-03 98134
 2 2019-10-06 28202
 3 2019-10-06 45202
 4 2019-10-06 77054
 5 2019-10-06 70112
 6 2019-10-06 07073
 7 2019-10-06 37213
 8 2019-10-06 19148
 9 2019-10-06 15212
10 2019-10-06 60605
# … with 194 more rows
…
The following object is masked from ‘package:purrr’:

    pluck

The following object is masked from ‘package:readr’:

    guess_encoding

[1] "Scraping these dates:"
[1] "2020-02-29"
[1] "Success rate: 100%"
[1] "finished TR script"
Updating Weather History...
[1] "Scraping these dates:"
# A tibble: 542 x 2
   date       zip  
   <chr>      <chr>
 1 2019-10-03 36604
 2 2019-10-03 27858
 3 2019-10-04 45221
 4 2019-10-04 95112
 5 2019-10-05 35204
 6 2019-10-05 80903
 7 2019-10-05 60115
 8 2019-10-05 66502
 9 2019-10-05 89122
10 2019-10-05 48858
# … with 532 more rows
…
